{
  "project_info": {
    "project_number": "201972987330",
    "firebase_url": "https://curs-work.firebaseio.com",
    "project_id": "curs-work",
    "storage_bucket": "curs-work.appspot.com"
  },
  "client": [
    {
      "client_info": {
        "mobilesdk_app_id": "1:201972987330:android:cb53874a18f90e582f925b",
        "android_client_info": {
          "package_name": "com.example.curs_work"
        }
      },
      "oauth_client": [
        {
          "client_id": "201972987330-kj4i574tc5u1onf7cnead64nlmnhd4n4.apps.googleusercontent.com",
          "client_type": 3
        }
      ],
      "api_key": [
        {
          "current_key": "AIzaSyAjcxMBICrZTU0162cuQZHCLvLhzPNMkts"
        }
      ],
      "services": {
        "appinvite_service": {
          "other_platform_oauth_client": [
            {
              "client_id": "201972987330-kj4i574tc5u1onf7cnead64nlmnhd4n4.apps.googleusercontent.com",
              "client_type": 3
            }
          ]
        }
      }
    }
  ],
  "configuration_version": "1"
}